cuentas\back\ccuentas\modelo\ParametrosOferta.class
cuentas\back\ccuentas\modelo\TramoMarcaKey.class
cuentas\back\ccuentas\modelo\TramoMarca.class
cuentas\back\general\modelo\Usuario.class
cuentas\back\ccuentas\modelo\DetalleMarca.class
cuentas\back\ccuentas\modelo\DetalleMarcaKey.class
cuentas\back\general\modelo\Marca.class
cuentas\back\general\modelo\Via.class
cuentas\back\ccuentas\modelo\MarcaRol.class
cuentas\back\general\modelo\Region.class
cuentas\back\general\modelo\TipoAutobus.class
cuentas\back\ccuentas\modelo\DetalleMarcaIds.class
cuentas\back\general\modelo\Zona.class
cuentas\back\general\modelo\RegionMarca.class
cuentas\back\ccuentas\modelo\Asociados.class
cuentas\back\ccuentas\modelo\AutobusExterno.class
cuentas\back\general\modelo\Parada.class
cuentas\back\general\modelo\ZonaMarca.class
